module gitlab.com/adamprice56/contained.af

require (
	github.com/Azure/go-ansiterm v0.0.0-20170929234023-d6e3b3328b78 // indirect
	github.com/Microsoft/go-winio v0.4.11 // indirect
	github.com/Nvveen/Gotty v0.0.0-20120604004816-cd527374f1e5 // indirect
	github.com/davecgh/go-spew v1.1.1 // indirect
	github.com/docker/distribution v0.0.0-20180920194744-16128bbac47f // indirect
	github.com/docker/docker v0.0.0-20180924202107-a9c061deec0f
	github.com/docker/go-connections v0.4.0 // indirect
	github.com/docker/go-units v0.3.3 // indirect
	github.com/genuinetools/pkg v0.0.0-20180910213200-1c141f661797
	github.com/gogo/protobuf v1.1.1 // indirect
	github.com/google/go-cmp v0.2.0 // indirect
	github.com/gorilla/context v1.1.1 // indirect
	github.com/gorilla/mux v1.6.2 // indirect
	github.com/gorilla/websocket v1.4.0
	github.com/onsi/gomega v1.4.2 // indirect
	github.com/opencontainers/go-digest v1.0.0-rc1 // indirect
	github.com/opencontainers/image-spec v1.0.1 // indirect
	github.com/pkg/errors v0.8.0 // indirect
	github.com/pmezard/go-difflib v1.0.0 // indirect
	github.com/sirupsen/logrus v1.0.6
	github.com/stretchr/testify v1.2.2 // indirect
	golang.org/x/crypto v0.0.0-20180910181607-0e37d006457b // indirect
	golang.org/x/net v0.0.0-20180925072008-f04abc6bdfa7 // indirect
	golang.org/x/sys v0.0.0-20180925112736-b09afc3d579e // indirect
	golang.org/x/time v0.0.0-20180412165947-fbb02b2291d2 // indirect
	google.golang.org/grpc v1.15.0 // indirect
	gopkg.in/airbrake/gobrake.v2 v2.0.9 // indirect
	gopkg.in/gemnasium/logrus-airbrake-hook.v2 v2.1.2 // indirect
	gotest.tools v2.1.0+incompatible // indirect
)
